{
  "years": [
    "2011",
    "2012",
    "2013",
    "2014",
    "2015"
  ],
  "noMobile": [
    "15",
    "12",
    "11",
    "11",
    "8"
  ],
  "phone": [
    "67",
    "59",
    "50",
    "43",
    "34"
  ],
  "smartphone": [
    "17",
    "29",
    "39",
    "46",
    "58"
  ]
}
