<?xml version="1.0" encoding="utf-8"?>
<!-- Generator: Adobe Illustrator 16.0.0, SVG Export Plug-In . SVG Version: 6.00 Build 0)  -->
<!DOCTYPE svg PUBLIC "-//W3C//DTD SVG 1.1//EN" "http://www.w3.org/Graphics/SVG/1.1/DTD/svg11.dtd">
<svg version="1.1" id="Calque_1" xmlns="http://www.w3.org/2000/svg"  x="0px" y="0px"
	 width="7px" height="18px" viewBox="0 0 7 18" enable-background="new 0 0 7 18" xml:space="preserve">
<g>
	<circle fill="#66E49B" cx="3.5" cy="2.743" r="2.235"/>
	<path fill="#66E49B" d="M6.628,17.491H0.372V9.335c0-1.721,1.407-3.128,3.128-3.128l0,0c1.72,0,3.128,1.407,3.128,3.128V17.491z"/>
</g>
<g>
	<circle fill="#CCD238" cx="15.757" cy="5.796" r="1.028"/>
	<path fill="#CCD238" d="M17.197,12.584h-2.88V8.83c0-0.792,0.647-1.439,1.439-1.439l0,0c0.792,0,1.44,0.647,1.44,1.439V12.584z"/>
</g>
<g>
	<circle fill="#99DB6A" cx="22.545" cy="5.796" r="1.029"/>
	<path fill="#99DB6A" d="M23.984,12.584h-2.879V8.83c0-0.792,0.648-1.439,1.439-1.439l0,0c0.792,0,1.439,0.647,1.439,1.439V12.584z"
		/>
</g>
<g>
	<circle fill="#66E49B" cx="29.334" cy="5.796" r="1.029"/>
	<path fill="#66E49B" d="M30.773,12.584h-2.879V8.83c0-0.792,0.647-1.439,1.439-1.439l0,0c0.791,0,1.439,0.647,1.439,1.439V12.584z"
		/>
</g>
<g>
	<circle fill="#33EDCD" cx="36.123" cy="5.796" r="1.029"/>
	<path fill="#33EDCD" d="M37.563,12.584h-2.88V8.83c0-0.792,0.647-1.439,1.44-1.439l0,0c0.791,0,1.439,0.647,1.439,1.439V12.584z"/>
</g>
<g>
	<circle fill="#00F6FF" cx="42.911" cy="5.796" r="1.028"/>
	<path fill="#00F6FF" d="M44.351,12.584h-2.88V8.83c0-0.792,0.648-1.439,1.439-1.439l0,0c0.792,0,1.44,0.647,1.44,1.439V12.584z"/>
</g>
</svg>
